plain text files | Statistical Analysis in Sociology
…
                                                               93,96,99,102,106,108,111),
                                                     col_names = c("year","hhid","hhwt","metarea",
                                                                   "pernum","perwt","sex",
                                                                   "age","marst","marrno",
                                                                   "agemarr","raced","hispand",
                                                                   "bpl","yrimmig","language",
                                                                   "educd","pernum_sp","age_sp",
                                                                   "marrno_sp","raced_sp","hispand_sp",
                                                                   "bpl_sp","yrimmig_sp","language_sp",
                                                                   "educd_sp")),
                       col_types = cols(.default = "i"), #ensure that all variables are read in as integers
                       progress = FALSE)
census1980

## # A tibble: 5,621,191 x 26
##     year  hhid  hhwt metarea pernum perwt   sex   age marst marrno agemarr
##    <int> <int> <int>   <int>  <int> <int> <int> <int> <int>  <int>   <int>
##  1  1980     1  2000      38      1  2000     2    45     1      1      19
##  2  1980     1  2000      38      2  2000     1    50     1      1      25
##  3  1980     1  2000      38      3  2000     1    23     6      0       0
##  4  1980     2  2000      38      1  2000     2    58     1      2      22
##  5  1980     2  2000      38      2  2000     1    59     1      2      27
##  6  1980     3  2000      38      1  2000     1    32     1      1      21
##  7  1980     3  2000      38      2  2000     2    29     1      1      18
##  8  1980     4  2000      38      1  2000     1    57     1      2      20
##  9  1980     4  2000      38      2  2000     2    47     1      2      17
## 10  1980     4  2000      38      3  2000     1    24     6      0       0
## # ... with 5,621,181 more rows, and 15 more variables: raced <int>,
## #   hispand <int>, bpl <int>, yrimmig <int>, language <int>, educd <int>,
## #   pernum_sp <int>, age_sp <int>, marrno_sp <int>, raced_sp <int>,
## #   hispand_sp <int>, bpl_sp <int>, yrimmig_sp <int>, language_sp <int>,
## #   educd_sp <int>
…
