Reading and Writing Data | Statistical Analysis in Sociology
…
## # A tibble: 3 x 5
##   name  location   race  gender yrsed
##   <chr> <chr>      <chr> <chr>  <int>
## 1 Bobbi Eugene,OR  Black Female    12
## 2 Jim   Seattle,WA White Male      11
## 3 Mary  Oakland,CA White Female    16

I have to do a little more work than I did with CSV files. First I need to define a col_positions argument and feed in the results from the function fwf_positions. This fwf_positions function needs to have a vector of starting and ending positions for each variable. I also use the col_names argument in this function to assign names to each of my variables.

Now I want to show you an example from my own work that demonstrates how flexible these methods are. The data here are fixed-width data created from an IPUMS extract of the 1980 US Census. The data come zipped up as a “G-zip” file with suffix “gz” which is a standard method of compressing data files. You can download the file here. You can also download the codebook that IPUMS provides which shows where the start and ending positions are for each variable.

One of the nice features of all of the tidyverse input packages is that they can read in data directly from zipped files without having to unzip them first. This saves you room on your computer and in your git repository (GitHub has a limit of 100MB for files). I am going to use that feature here as well as a couple of other nifty features. Here is my input command:

## # A tibble: 5,621,191 x 26
##     year  hhid  hhwt metarea pernum perwt   sex   age marst marrno agemarr
##    <int> <int> <int>   <int>  <int> <int> <int> <int> <int>  <int>   <int>
##  1  1980     1  2000      38      1  2000     2    45     1      1      19
##  2  1980     1  2000      38      2  2000     1    50     1      1      25
##  3  1980     1  2000      38      3  2000     1    23     6      0       0
##  4  1980     2  2000      38      1  2000     2    58     1      2      22
##  5  1980     2  2000      38      2  2000     1    59     1      2      27
##  6  1980     3  2000      38      1  2000     1    32     1      1      21
##  7  1980     3  2000      38      2  2000     2    29     1      1      18
##  8  1980     4  2000      38      1  2000     1    57     1      2      20
##  9  1980     4  2000      38      2  2000     2    47     1      2      17
## 10  1980     4  2000      38      3  2000     1    24     6      0       0
## # ... with 5,621,181 more rows, and 15 more variables: raced <int>,
## #   hispand <int>, bpl <int>, yrimmig <int>, language <int>, educd <int>,
## #   pernum_sp <int>, age_sp <int>, marrno_sp <int>, raced_sp <int>,
## #   hispand_sp <int>, bpl_sp <int>, yrimmig_sp <int>, language_sp <int>,
## #   educd_sp <int>
…
